Introduction to Mixed Models using R
…
ANOVA

Summarize the data by participant (aka, get individual difficulty scores)

repeated-measures ANOVAs are a statistical abominations

We need to group participants based on their average RT and reported difficulty

dfsub <- df %>% 
  group_by(Participant) %>% 
  summarise_all(mean)

dfsub

## # A tibble: 40 x 3
##    Participant    RT Difficulty
##    <chr>       <dbl>      <dbl>
##  1 S01         0.712       -0.3
##  2 S02         1.43        -0.6
##  3 S03         1.13        -0.9
##  4 S04         0.962       -1.2
##  5 S05         1.90        -1.5
##  6 S06         2.08        -1.8
##  7 S07         1.94        -2.1
##  8 S08         2.75        -2.4
##  9 S09         3.12        -2.7
## 10 S10         3.38        -3  
## # ... with 30 more rows
…
